Etude de la biométrie humaine
…
On remarque que c’est plus au moins proprotionnel (sauf quelque exeption) la grande majorité à un poids qui est proportionnel à leurs taille ce qui montre que le hainaut n’est pas en obésit. De plus on observe que la plus part des femmes sont plus légère et plus petite que les hommes.

IMC

biometry <- mutate(biometry, imc= masse / taille^2)
biometry

## # A tibble: 212 x 19
##    id    taille masse masse_corr   age genre tour_taille tour_hanche
##    <chr>  <dbl> <dbl>      <dbl> <int> <chr>       <dbl>       <dbl>
##  1 0_1     1.90  90.0       91.2    25 h             NA          NA 
##  2 1_1     1.63  54.0       55.1    18 f             66.         91.
##  3 1_2     1.75  55.0       56.2    16 h             69.         88.
##  4 1_3     1.74  68.0       69.4    44 h             82.         90.
##  5 1_4     1.65  51.0       52.1    49 f             69.         93.
##  6 1_5     1.64  47.0       48.0    20 f             66.         87.
##  7 1_6     1.66  55.0       56.2    19 f             68.         92.
##  8 1_7     1.72  58.0       59.3    19 f             74.         88.
##  9 2_1     1.65  54.0       55.1    27 f             65.         88.
## 10 6_1     1.67  74.7       75.7    51 f            107.        110.
## # ... with 202 more rows, and 11 more variables: tour_poignet <dbl>,
## #   acti_physique <dbl>, acti_profession <chr>, alcool <dbl>,
## #   fastfood <dbl>, repas <dbl>, grignotage <dbl>, proteine_animale <dbl>,
## #   hainaut <chr>, commentaire <chr>, imc <dbl>

biometry <- mutate(biometry,
  imc_schedule = case_when(
    imc < 18.5 ~ "sous poids",
    imc >= 18.5 & imc < 25 ~ "poids normal",
    imc >= 25 & imc < 30 ~ "surpoids",
    imc >= 30 ~ "obésité"
))

biometry

## # A tibble: 212 x 20
##    id    taille masse masse_corr   age genre tour_taille tour_hanche
##    <chr>  <dbl> <dbl>      <dbl> <int> <chr>       <dbl>       <dbl>
##  1 0_1     1.90  90.0       91.2    25 h             NA          NA 
##  2 1_1     1.63  54.0       55.1    18 f             66.         91.
##  3 1_2     1.75  55.0       56.2    16 h             69.         88.
##  4 1_3     1.74  68.0       69.4    44 h             82.         90.
##  5 1_4     1.65  51.0       52.1    49 f             69.         93.
##  6 1_5     1.64  47.0       48.0    20 f             66.         87.
##  7 1_6     1.66  55.0       56.2    19 f             68.         92.
##  8 1_7     1.72  58.0       59.3    19 f             74.         88.
##  9 2_1     1.65  54.0       55.1    27 f             65.         88.
## 10 6_1     1.67  74.7       75.7    51 f            107.        110.
## # ... with 202 more rows, and 12 more variables: tour_poignet <dbl>,
## #   acti_physique <dbl>, acti_profession <chr>, alcool <dbl>,
## #   fastfood <dbl>, repas <dbl>, grignotage <dbl>, proteine_animale <dbl>,
## #   hainaut <chr>, commentaire <chr>, imc <dbl>, imc_schedule <chr>
…
